build/sram_inst/sram_inst_tb.vcd
$date
     Mar 30, 2026       11:54:28
$end

$version
 SystemC 2.3.4-Accellera --- Mar 19 2026 12:36:47
$end

$timescale
     1 ps
$end

$scope module SystemC $end
$var wire    1  aaaaa  clk       $end
$var wire    1  aaaab  rst_ni       $end
$var wire    1  aaaac  req_i       $end
$var wire    1  aaaad  we_i       $end
$var wire    5  aaaae  addr_i [4:0]  $end
$scope module rdata $end
$var wire   32  aaaak  opcode [31:0]  $end
$var wire   32  aaaal  dest [31:0]  $end
$var wire   32  aaaam  op_a [31:0]  $end
$var wire   32  aaaan  op_b [31:0]  $end
$var wire   32  aaaao  imm [31:0]  $end
$upscope $end
$scope module wdata $end
$var wire   32  aaaaf  opcode [31:0]  $end
$var wire   32  aaaag  dest [31:0]  $end
$var wire   32  aaaah  op_a [31:0]  $end
$var wire   32  aaaai  op_b [31:0]  $end
$var wire   32  aaaaj  imm [31:0]  $end
$upscope $end
$upscope $end
$enddefinitions  $end

$comment
All initial values are dumped below at time 0 sec = 0 timescale units.
$end

$dumpvars
0aaaaa
0aaaab
0aaaac
0aaaad
b0 aaaae
b1 aaaaf
b0 aaaag
b0 aaaah
b11111111111111111111111111111111 aaaai
b0 aaaaj
b1 aaaak
b0 aaaal
b0 aaaam
b11111111111111111111111111111111 aaaan
b0 aaaao
$end

#5000
1aaaaa

#10000
0aaaaa

#15000
1aaaaa

#20000
0aaaaa

#25000
1aaaaa

#30000
0aaaaa
1aaaab

#35000
1aaaaa

#40000
0aaaaa

#45000
1aaaaa

#50000
0aaaaa

#55000
1aaaaa

#60000
0aaaaa

#65000
1aaaaa
1aaaac
1aaaad
b1111 aaaae
b11001 aaaag
b10111 aaaah
b11111111111111111111110011011001 aaaaj

#70000
0aaaaa

#75000
1aaaaa
0aaaac
0aaaad

#80000
0aaaaa

#85000
1aaaaa

#90000
0aaaaa

#95000
1aaaaa

#100000
0aaaaa

#105000
1aaaaa

#110000
0aaaaa

#115000
1aaaaa
1aaaac
b1000 aaaae

#120000
0aaaaa

#125000
1aaaaa
0aaaac

#130000
0aaaaa

#135000
1aaaaa

#140000
0aaaaa

#145000
1aaaaa
1aaaac
b10101 aaaae

#150000
0aaaaa

#155000
1aaaaa
0aaaac

#160000
0aaaaa

#165000
1aaaaa

#170000
0aaaaa

#175000
1aaaaa

#180000
0aaaaa

#185000
1aaaaa
1aaaac
1aaaad
b1010 aaaae
b111 aaaag
b110 aaaah
b11011111001 aaaaj

#190000
0aaaaa

#195000
1aaaaa
0aaaac
0aaaad

#200000
0aaaaa

#205000
1aaaaa

#210000
0aaaaa

#215000
1aaaaa

#220000
0aaaaa

#225000
1aaaaa

#230000
0aaaaa

#235000
1aaaaa
1aaaac
b1000 aaaae

#240000
0aaaaa

#245000
1aaaaa
0aaaac

#250000
0aaaaa

#255000
1aaaaa

#260000
0aaaaa

#265000
1aaaaa

#270000
0aaaaa

#275000
1aaaaa

#280000
0aaaaa

#285000
1aaaaa
1aaaac
1aaaad
b11011 aaaae
b10 aaaaf
b11111 aaaag
b10010 aaaah
b11000 aaaai
b0 aaaaj

#290000
0aaaaa

#295000
1aaaaa
0aaaac
0aaaad

#300000
0aaaaa

#305000
1aaaaa
1aaaac
b1 aaaae

#310000
0aaaaa

#315000
1aaaaa
0aaaac

#320000
0aaaaa

#325000
1aaaaa

#330000
0aaaaa

#335000
1aaaaa
1aaaac
1aaaad
b1101 aaaae
b100 aaaaf
b10010 aaaag
b10011 aaaah
b100 aaaai

#340000
0aaaaa

#345000
1aaaaa
0aaaac
0aaaad

#350000
0aaaaa

#355000
1aaaaa
1aaaac
1aaaad
b10001 aaaae
b1 aaaaf
b11011 aaaag
b10111 aaaah
b11111111111111111111111111111111 aaaai
b11111111111111111111111110101100 aaaaj

#360000
0aaaaa

#365000
1aaaaa
0aaaac
0aaaad

#370000
0aaaaa

#375000
1aaaaa

#380000
0aaaaa

#385000
1aaaaa
1aaaac
b1010 aaaae

#390000
0aaaaa

#395000
1aaaaa
0aaaac

#400000
0aaaaa

#405000
1aaaaa
b111 aaaal
b110 aaaam
b11011111001 aaaao

#410000
0aaaaa

#415000
1aaaaa

#420000
0aaaaa

#425000
1aaaaa

#430000
0aaaaa

#435000
1aaaaa
1aaaac
1aaaad
b110 aaaae
b101 aaaaf
b10101 aaaag
b11 aaaah
b10101 aaaai
b0 aaaaj

#440000
0aaaaa

#445000
1aaaaa
0aaaac
0aaaad

#450000
0aaaaa

#455000
1aaaaa

#460000
0aaaaa

#465000
1aaaaa
1aaaac
1aaaad
b11001 aaaae
b100 aaaaf
b1000 aaaag
b10000 aaaah
b1101 aaaai

#470000
0aaaaa

#475000
1aaaaa
0aaaac
0aaaad

#480000
0aaaaa

#485000
1aaaaa

#490000
0aaaaa

#495000
1aaaaa
1aaaac
b10010 aaaae

#500000
0aaaaa

#505000
1aaaaa
0aaaac

#510000
0aaaaa

#515000
1aaaaa
b0 aaaal
b0 aaaam
b0 aaaao

#520000
0aaaaa

#525000
1aaaaa
1aaaac
1aaaad
b11000 aaaae
b11000 aaaag
b110 aaaah
b1001 aaaai

#530000
0aaaaa

#535000
1aaaaa
0aaaac
0aaaad

#540000
0aaaaa

#545000
1aaaaa

#550000
0aaaaa

#555000
1aaaaa

#560000
0aaaaa

#565000
1aaaaa

#570000
0aaaaa

#575000
1aaaaa
1aaaac

#580000
0aaaaa

#585000
1aaaaa
0aaaac

#590000
0aaaaa

#595000
1aaaaa
b100 aaaak
b11000 aaaal
b110 aaaam
b1001 aaaan

#600000
0aaaaa

#605000
1aaaaa

#610000
0aaaaa

#615000
1aaaaa
1aaaac
1aaaad
b1 aaaae
b1 aaaaf
b11101 aaaah
b11111111111111111111111111111111 aaaai
b11111111111111111111101010001111 aaaaj

#620000
0aaaaa

#625000
1aaaaa
0aaaac
0aaaad

#630000
0aaaaa

#635000
1aaaaa

#640000
0aaaaa

#645000
1aaaaa
1aaaac
1aaaad
b100 aaaae
b11011 aaaag
b11 aaaah
b11111111111111111111100100110100 aaaaj

#650000
0aaaaa

#655000
1aaaaa
0aaaac
0aaaad

#660000
0aaaaa

#665000
1aaaaa
1aaaac
1aaaad
b101 aaaae
b1 aaaag
b11011 aaaah
b11111111111111111111100110100111 aaaaj

#670000
0aaaaa

#675000
1aaaaa
0aaaac
0aaaad

#680000
0aaaaa

#685000
1aaaaa
1aaaac
b11110 aaaae

#690000
0aaaaa

#695000
1aaaaa
0aaaac

#700000
0aaaaa

#705000
1aaaaa
b1 aaaak
b0 aaaal
b0 aaaam
b11111111111111111111111111111111 aaaan

#710000
0aaaaa

#715000
1aaaaa

#720000
0aaaaa

#725000
1aaaaa
1aaaac
1aaaad
b1111 aaaae
b11101 aaaag
b1 aaaah
b11111111111111111111110001110011 aaaaj

#730000
0aaaaa

#735000
1aaaaa
0aaaac
0aaaad

#740000
0aaaaa

#745000
1aaaaa

#750000
0aaaaa

#755000
1aaaaa

#760000
0aaaaa

#765000
1aaaaa

#770000
0aaaaa

#775000
1aaaaa
1aaaac
1aaaad
b1 aaaae
b1101 aaaag
b11010 aaaah
b10100000110 aaaaj

#780000
0aaaaa

#785000
1aaaaa
0aaaac
0aaaad

#790000
0aaaaa

#795000
1aaaaa
1aaaac
1aaaad
b1010 aaaae
b11 aaaaf
b10110 aaaag
b11110 aaaah
b100 aaaai
b0 aaaaj

#800000
0aaaaa

#805000
1aaaaa
0aaaac
0aaaad

#810000
0aaaaa

#815000
1aaaaa
1aaaac
1aaaad
b10000 aaaae
b0 aaaaf
b1001 aaaag
b11101 aaaah
b11101 aaaai

#820000
0aaaaa

#825000
1aaaaa
0aaaac
0aaaad

#830000
0aaaaa

#835000
1aaaaa
1aaaac
b11011 aaaae

#840000
0aaaaa

#845000
1aaaaa
0aaaac

#850000
0aaaaa

#855000
1aaaaa
b10 aaaak
b11111 aaaal
b10010 aaaam
b11000 aaaan

#860000
0aaaaa

#865000
1aaaaa

#870000
0aaaaa

#875000
1aaaaa

#880000
0aaaaa

#885000
1aaaaa

#890000
0aaaaa

#895000
1aaaaa
1aaaac
1aaaad
b1111 aaaae
b11 aaaaf
b1011 aaaag
b10100 aaaah
b11000 aaaai

#900000
0aaaaa

#905000
1aaaaa
0aaaac
0aaaad

#910000
0aaaaa

#915000
1aaaaa

#920000
0aaaaa

#925000
1aaaaa

#930000
0aaaaa

#935000
1aaaaa
1aaaac
1aaaad
b11100 aaaae
b101 aaaaf
b11101 aaaag
b1 aaaah
b1101 aaaai

#940000
0aaaaa

#945000
1aaaaa
0aaaac
0aaaad

#950000
0aaaaa

#955000
1aaaaa
1aaaac
1aaaad
b1001 aaaae
b1 aaaaf
b11001 aaaag
b11111111111111111111111111111111 aaaai
b1101010 aaaaj

#960000
0aaaaa

#965000
1aaaaa
0aaaac
0aaaad

#970000
0aaaaa

#975000
1aaaaa

#980000
0aaaaa

#985000
1aaaaa
1aaaac
1aaaad
b110 aaaae
b100 aaaaf
b1011 aaaag
b10110 aaaah
b1000 aaaai
b0 aaaaj

#990000
0aaaaa

#995000
1aaaaa
0aaaac
0aaaad

#1000000
0aaaaa

#1005000
1aaaaa

#1010000
0aaaaa

#1015000
1aaaaa

#1020000
0aaaaa

#1025000
1aaaaa
1aaaac
b101 aaaae

#1030000
0aaaaa

#1035000
1aaaaa
0aaaac

#1040000
0aaaaa

#1045000
1aaaaa
b1 aaaak
b1 aaaal
b11011 aaaam
b11111111111111111111111111111111 aaaan
b11111111111111111111100110100111 aaaao

#1050000
0aaaaa

#1055000
1aaaaa

#1060000
0aaaaa

#1065000
1aaaaa
1aaaac
b1100 aaaae

#1070000
0aaaaa

#1075000
1aaaaa
0aaaac

#1080000
0aaaaa

#1085000
1aaaaa
b0 aaaal
b0 aaaam
b0 aaaao

#1090000
0aaaaa

#1095000
1aaaaa

#1100000
0aaaaa

#1105000
1aaaaa
1aaaac
1aaaad
b1011 aaaae
b1 aaaaf
b1000 aaaag
b11000 aaaah
b11111111111111111111111111111111 aaaai
b10110010100 aaaaj

#1110000
0aaaaa

#1115000
1aaaaa
0aaaac
0aaaad

#1120000
0aaaaa

#1125000
1aaaaa
1aaaac
1aaaad
b11101 aaaae
b0 aaaag
b11011 aaaah
b11111111111111111111111010101100 aaaaj

#1130000
0aaaaa

#1135000
1aaaaa
0aaaac
0aaaad

#1140000
0aaaaa

#1145000
1aaaaa
1aaaac
b110 aaaae

#1150000
0aaaaa

#1155000
1aaaaa
0aaaac

#1160000
0aaaaa

#1165000
1aaaaa
b100 aaaak
b1011 aaaal
b10110 aaaam
b1000 aaaan

#1170000
0aaaaa

#1175000
1aaaaa

#1180000
0aaaaa

#1185000
1aaaaa

#1190000
0aaaaa

#1195000
1aaaaa

#1200000
0aaaaa

#1205000
1aaaaa
1aaaac
b10000 aaaae

#1210000
0aaaaa

#1215000
1aaaaa
0aaaac

#1220000
0aaaaa

#1225000
1aaaaa
b0 aaaak
b1001 aaaal
b11101 aaaam
b11101 aaaan

#1230000
0aaaaa

#1235000
1aaaaa
1aaaac
1aaaad
b1110 aaaae
b11 aaaaf
b1 aaaag
b10010 aaaah
b1010 aaaai
b0 aaaaj

#1240000
0aaaaa

#1245000
1aaaaa
0aaaac
0aaaad

#1250000
0aaaaa

#1255000
1aaaaa

#1260000
0aaaaa

#1265000
1aaaaa

#1270000
0aaaaa

#1275000
1aaaaa

#1280000
0aaaaa

#1285000
1aaaaa
1aaaac
b0 aaaae

#1290000
0aaaaa

#1295000
1aaaaa
0aaaac

#1300000
0aaaaa

#1305000
1aaaaa
b1 aaaak
b0 aaaal
b0 aaaam
b11111111111111111111111111111111 aaaan

#1310000
0aaaaa

#1315000
1aaaaa

#1320000
0aaaaa

#1325000
1aaaaa

#1330000
0aaaaa

#1335000
1aaaaa
1aaaac
b1011 aaaae

#1340000
0aaaaa

#1345000
1aaaaa
0aaaac

#1350000
0aaaaa

#1355000
1aaaaa
b1000 aaaal
b11000 aaaam
b10110010100 aaaao

#1360000
0aaaaa

#1365000
1aaaaa

#1370000
0aaaaa

#1375000
1aaaaa

#1380000
0aaaaa

#1385000
1aaaaa

#1390000
0aaaaa

#1395000
1aaaaa
1aaaac
1aaaad
b11001 aaaae
b1 aaaaf
b10101 aaaag
b1101 aaaah
b11111111111111111111111111111111 aaaai
b1000110001 aaaaj

#1400000
0aaaaa

#1405000
1aaaaa
0aaaac
0aaaad

#1410000
0aaaaa

#1415000
1aaaaa

#1420000
0aaaaa

#1425000
1aaaaa

#1430000
0aaaaa

#1435000
1aaaaa
1aaaac
1aaaad
b100 aaaae
b111 aaaag
b1000 aaaah
b1000110000 aaaaj

#1440000
0aaaaa

#1445000
1aaaaa
0aaaac
0aaaad

#1450000
0aaaaa

#1455000
1aaaaa

#1460000
0aaaaa

#1465000
1aaaaa

#1470000
0aaaaa

#1475000
1aaaaa

#1480000
0aaaaa

#1485000
1aaaaa
1aaaac
b11011 aaaae

#1490000
0aaaaa

#1495000
1aaaaa
0aaaac

#1500000
0aaaaa

#1505000
1aaaaa
b10 aaaak
b11111 aaaal
b10010 aaaam
b11000 aaaan
b0 aaaao

