build/sram/sram_tb.vcd
$date
     Mar 30, 2026       11:47:56
$end

$version
 SystemC 2.3.4-Accellera --- Mar 19 2026 12:36:47
$end

$timescale
     1 ps
$end

$scope module SystemC $end
$var wire    1  aaaaa  clk       $end
$var wire    1  aaaab  rst_ni       $end
$var wire    1  aaaac  req_i       $end
$var wire    1  aaaad  we_i       $end
$var wire    7  aaaae  addr_i [6:0]  $end
$var wire    8  aaaaf  wdata_i [7:0]  $end
$var wire    8  aaaag  rdata_o [7:0]  $end
$var wire    8  aaaah  mem_0 [7:0]  $end
$var wire    8  aaaai  mem_1 [7:0]  $end
$var wire    8  aaaaj  mem_2 [7:0]  $end
$var wire    8  aaaak  mem_3 [7:0]  $end
$var wire    8  aaaal  mem_4 [7:0]  $end
$var wire    8  aaaam  mem_5 [7:0]  $end
$var wire    8  aaaan  mem_6 [7:0]  $end
$var wire    8  aaaao  mem_7 [7:0]  $end
$var wire    8  aaaap  mem_8 [7:0]  $end
$var wire    8  aaaaq  mem_9 [7:0]  $end
$var wire    8  aaaar  mem_10 [7:0]  $end
$var wire    8  aaaas  mem_11 [7:0]  $end
$var wire    8  aaaat  mem_12 [7:0]  $end
$var wire    8  aaaau  mem_13 [7:0]  $end
$var wire    8  aaaav  mem_14 [7:0]  $end
$var wire    8  aaaaw  mem_15 [7:0]  $end
$var wire    8  aaaax  mem_16 [7:0]  $end
$var wire    8  aaaay  mem_17 [7:0]  $end
$var wire    8  aaaaz  mem_18 [7:0]  $end
$var wire    8  aaaba  mem_19 [7:0]  $end
$var wire    8  aaabb  mem_20 [7:0]  $end
$var wire    8  aaabc  mem_21 [7:0]  $end
$var wire    8  aaabd  mem_22 [7:0]  $end
$var wire    8  aaabe  mem_23 [7:0]  $end
$var wire    8  aaabf  mem_24 [7:0]  $end
$var wire    8  aaabg  mem_25 [7:0]  $end
$var wire    8  aaabh  mem_26 [7:0]  $end
$var wire    8  aaabi  mem_27 [7:0]  $end
$var wire    8  aaabj  mem_28 [7:0]  $end
$var wire    8  aaabk  mem_29 [7:0]  $end
$var wire    8  aaabl  mem_30 [7:0]  $end
$var wire    8  aaabm  mem_31 [7:0]  $end
$var wire    8  aaabn  mem_32 [7:0]  $end
$var wire    8  aaabo  mem_33 [7:0]  $end
$var wire    8  aaabp  mem_34 [7:0]  $end
$var wire    8  aaabq  mem_35 [7:0]  $end
$var wire    8  aaabr  mem_36 [7:0]  $end
$var wire    8  aaabs  mem_37 [7:0]  $end
$var wire    8  aaabt  mem_38 [7:0]  $end
$var wire    8  aaabu  mem_39 [7:0]  $end
$var wire    8  aaabv  mem_40 [7:0]  $end
$var wire    8  aaabw  mem_41 [7:0]  $end
$var wire    8  aaabx  mem_42 [7:0]  $end
$var wire    8  aaaby  mem_43 [7:0]  $end
$var wire    8  aaabz  mem_44 [7:0]  $end
$var wire    8  aaaca  mem_45 [7:0]  $end
$var wire    8  aaacb  mem_46 [7:0]  $end
$var wire    8  aaacc  mem_47 [7:0]  $end
$var wire    8  aaacd  mem_48 [7:0]  $end
$var wire    8  aaace  mem_49 [7:0]  $end
$var wire    8  aaacf  mem_50 [7:0]  $end
$var wire    8  aaacg  mem_51 [7:0]  $end
$var wire    8  aaach  mem_52 [7:0]  $end
$var wire    8  aaaci  mem_53 [7:0]  $end
$var wire    8  aaacj  mem_54 [7:0]  $end
$var wire    8  aaack  mem_55 [7:0]  $end
$var wire    8  aaacl  mem_56 [7:0]  $end
$var wire    8  aaacm  mem_57 [7:0]  $end
$var wire    8  aaacn  mem_58 [7:0]  $end
$var wire    8  aaaco  mem_59 [7:0]  $end
$var wire    8  aaacp  mem_60 [7:0]  $end
$var wire    8  aaacq  mem_61 [7:0]  $end
$var wire    8  aaacr  mem_62 [7:0]  $end
$var wire    8  aaacs  mem_63 [7:0]  $end
$var wire    8  aaact  mem_64 [7:0]  $end
$var wire    8  aaacu  mem_65 [7:0]  $end
$var wire    8  aaacv  mem_66 [7:0]  $end
$var wire    8  aaacw  mem_67 [7:0]  $end
$var wire    8  aaacx  mem_68 [7:0]  $end
$var wire    8  aaacy  mem_69 [7:0]  $end
$var wire    8  aaacz  mem_70 [7:0]  $end
$var wire    8  aaada  mem_71 [7:0]  $end
$var wire    8  aaadb  mem_72 [7:0]  $end
$var wire    8  aaadc  mem_73 [7:0]  $end
$var wire    8  aaadd  mem_74 [7:0]  $end
$var wire    8  aaade  mem_75 [7:0]  $end
$var wire    8  aaadf  mem_76 [7:0]  $end
$var wire    8  aaadg  mem_77 [7:0]  $end
$var wire    8  aaadh  mem_78 [7:0]  $end
$var wire    8  aaadi  mem_79 [7:0]  $end
$var wire    8  aaadj  mem_80 [7:0]  $end
$var wire    8  aaadk  mem_81 [7:0]  $end
$var wire    8  aaadl  mem_82 [7:0]  $end
$var wire    8  aaadm  mem_83 [7:0]  $end
$var wire    8  aaadn  mem_84 [7:0]  $end
$var wire    8  aaado  mem_85 [7:0]  $end
$var wire    8  aaadp  mem_86 [7:0]  $end
$var wire    8  aaadq  mem_87 [7:0]  $end
$var wire    8  aaadr  mem_88 [7:0]  $end
$var wire    8  aaads  mem_89 [7:0]  $end
$var wire    8  aaadt  mem_90 [7:0]  $end
$var wire    8  aaadu  mem_91 [7:0]  $end
$var wire    8  aaadv  mem_92 [7:0]  $end
$var wire    8  aaadw  mem_93 [7:0]  $end
$var wire    8  aaadx  mem_94 [7:0]  $end
$var wire    8  aaady  mem_95 [7:0]  $end
$var wire    8  aaadz  mem_96 [7:0]  $end
$var wire    8  aaaea  mem_97 [7:0]  $end
$var wire    8  aaaeb  mem_98 [7:0]  $end
$var wire    8  aaaec  mem_99 [7:0]  $end
$var wire    8  aaaed  mem_100 [7:0]  $end
$var wire    8  aaaee  mem_101 [7:0]  $end
$var wire    8  aaaef  mem_102 [7:0]  $end
$var wire    8  aaaeg  mem_103 [7:0]  $end
$var wire    8  aaaeh  mem_104 [7:0]  $end
$var wire    8  aaaei  mem_105 [7:0]  $end
$var wire    8  aaaej  mem_106 [7:0]  $end
$var wire    8  aaaek  mem_107 [7:0]  $end
$var wire    8  aaael  mem_108 [7:0]  $end
$var wire    8  aaaem  mem_109 [7:0]  $end
$var wire    8  aaaen  mem_110 [7:0]  $end
$var wire    8  aaaeo  mem_111 [7:0]  $end
$var wire    8  aaaep  mem_112 [7:0]  $end
$var wire    8  aaaeq  mem_113 [7:0]  $end
$var wire    8  aaaer  mem_114 [7:0]  $end
$var wire    8  aaaes  mem_115 [7:0]  $end
$var wire    8  aaaet  mem_116 [7:0]  $end
$var wire    8  aaaeu  mem_117 [7:0]  $end
$var wire    8  aaaev  mem_118 [7:0]  $end
$var wire    8  aaaew  mem_119 [7:0]  $end
$var wire    8  aaaex  mem_120 [7:0]  $end
$var wire    8  aaaey  mem_121 [7:0]  $end
$var wire    8  aaaez  mem_122 [7:0]  $end
$var wire    8  aaafa  mem_123 [7:0]  $end
$var wire    8  aaafb  mem_124 [7:0]  $end
$var wire    8  aaafc  mem_125 [7:0]  $end
$var wire    8  aaafd  mem_126 [7:0]  $end
$var wire    8  aaafe  mem_127 [7:0]  $end
$upscope $end
$enddefinitions  $end

$comment
All initial values are dumped below at time 0 sec = 0 timescale units.
$end

$dumpvars
0aaaaa
0aaaab
0aaaac
0aaaad
b0 aaaae
b0 aaaaf
b0 aaaag
b0 aaaah
b0 aaaai
b0 aaaaj
b0 aaaak
b0 aaaal
b0 aaaam
b0 aaaan
b0 aaaao
b0 aaaap
b0 aaaaq
b0 aaaar
b0 aaaas
b0 aaaat
b0 aaaau
b0 aaaav
b0 aaaaw
b0 aaaax
b0 aaaay
b0 aaaaz
b0 aaaba
b0 aaabb
b0 aaabc
b0 aaabd
b0 aaabe
b0 aaabf
b0 aaabg
b0 aaabh
b0 aaabi
b0 aaabj
b0 aaabk
b0 aaabl
b0 aaabm
b0 aaabn
b0 aaabo
b0 aaabp
b0 aaabq
b0 aaabr
b0 aaabs
b0 aaabt
b0 aaabu
b0 aaabv
b0 aaabw
b0 aaabx
b0 aaaby
b0 aaabz
b0 aaaca
b0 aaacb
b0 aaacc
b0 aaacd
b0 aaace
b0 aaacf
b0 aaacg
b0 aaach
b0 aaaci
b0 aaacj
b0 aaack
b0 aaacl
b0 aaacm
b0 aaacn
b0 aaaco
b0 aaacp
b0 aaacq
b0 aaacr
b0 aaacs
b0 aaact
b0 aaacu
b0 aaacv
b0 aaacw
b0 aaacx
b0 aaacy
b0 aaacz
b0 aaada
b0 aaadb
b0 aaadc
b0 aaadd
b0 aaade
b0 aaadf
b0 aaadg
b0 aaadh
b0 aaadi
b0 aaadj
b0 aaadk
b0 aaadl
b0 aaadm
b0 aaadn
b0 aaado
b0 aaadp
b0 aaadq
b0 aaadr
b0 aaads
b0 aaadt
b0 aaadu
b0 aaadv
b0 aaadw
b0 aaadx
b0 aaady
b0 aaadz
b0 aaaea
b0 aaaeb
b0 aaaec
b0 aaaed
b0 aaaee
b0 aaaef
b0 aaaeg
b0 aaaeh
b0 aaaei
b0 aaaej
b0 aaaek
b0 aaael
b0 aaaem
b0 aaaen
b0 aaaeo
b0 aaaep
b0 aaaeq
b0 aaaer
b0 aaaes
b0 aaaet
b0 aaaeu
b0 aaaev
b0 aaaew
b0 aaaex
b0 aaaey
b0 aaaez
b0 aaafa
b0 aaafb
b0 aaafc
b0 aaafd
b0 aaafe
$end

#5000
1aaaaa

#10000
0aaaaa

#15000
1aaaaa

#20000
0aaaaa

#25000
1aaaaa

#30000
0aaaaa
1aaaab

#35000
1aaaaa

#40000
0aaaaa

#45000
1aaaaa

#50000
0aaaaa

#55000
1aaaaa

#60000
0aaaaa

#65000
1aaaaa
1aaaac
1aaaad
b1111 aaaae
b10111001 aaaaf

#70000
0aaaaa

#75000
1aaaaa
0aaaac
0aaaad

#80000
0aaaaa

#85000
1aaaaa

#90000
0aaaaa

#95000
1aaaaa

#100000
0aaaaa

#105000
1aaaaa

#110000
0aaaaa

#115000
1aaaaa
b10111001 aaaaw

#120000
0aaaaa

#125000
1aaaaa
1aaaac
1aaaad
b1101010 aaaae
b11011001 aaaaf

#130000
0aaaaa

#135000
1aaaaa
0aaaac
0aaaad

#140000
0aaaaa

#145000
1aaaaa

#150000
0aaaaa

#155000
1aaaaa

#160000
0aaaaa

#165000
1aaaaa

#170000
0aaaaa

#175000
1aaaaa
1aaaac
b1001000 aaaae
b11011001 aaaej

#180000
0aaaaa

#185000
1aaaaa
0aaaac

#190000
0aaaaa

#195000
1aaaaa

#200000
0aaaaa

#205000
1aaaaa

#210000
0aaaaa

#215000
1aaaaa

#220000
0aaaaa

#225000
1aaaaa

#230000
0aaaaa

#235000
1aaaaa

#240000
0aaaaa

#245000
1aaaaa
1aaaac
1aaaad
b0 aaaae
b111 aaaaf

#250000
0aaaaa

#255000
1aaaaa
0aaaac
0aaaad

#260000
0aaaaa

#265000
1aaaaa

#270000
0aaaaa

#275000
1aaaaa

#280000
0aaaaa

#285000
1aaaaa

#290000
0aaaaa

#295000
1aaaaa
b111 aaaah

#300000
0aaaaa

#305000
1aaaaa

#310000
0aaaaa

#315000
1aaaaa

#320000
0aaaaa

#325000
1aaaaa
1aaaac
b10101 aaaae

#330000
0aaaaa

#335000
1aaaaa
0aaaac

#340000
0aaaaa

#345000
1aaaaa

#350000
0aaaaa

#355000
1aaaaa

#360000
0aaaaa

#365000
1aaaaa

#370000
0aaaaa

#375000
1aaaaa

#380000
0aaaaa

#385000
1aaaaa

#390000
0aaaaa

#395000
1aaaaa
1aaaac
1aaaad
b1100010 aaaae
b11001010 aaaaf

#400000
0aaaaa

#405000
1aaaaa
0aaaac
0aaaad

#410000
0aaaaa

#415000
1aaaaa

#420000
0aaaaa

#425000
1aaaaa

#430000
0aaaaa

#435000
1aaaaa

#440000
0aaaaa

#445000
1aaaaa
b11001010 aaaeb

#450000
0aaaaa

#455000
1aaaaa
1aaaac
1aaaad
b1001010 aaaae
b11000111 aaaaf

#460000
0aaaaa

#465000
1aaaaa
0aaaac
0aaaad

#470000
0aaaaa

#475000
1aaaaa

#480000
0aaaaa

#485000
1aaaaa

#490000
0aaaaa

#495000
1aaaaa

#500000
0aaaaa

#505000
1aaaaa
b11000111 aaadd

#510000
0aaaaa

#515000
1aaaaa

#520000
0aaaaa

#525000
1aaaaa
1aaaac
b1111010 aaaae

#530000
0aaaaa

#535000
1aaaaa
0aaaac

#540000
0aaaaa

#545000
1aaaaa

#550000
0aaaaa

#555000
1aaaaa

#560000
0aaaaa

#565000
1aaaaa

#570000
0aaaaa

#575000
1aaaaa

#580000
0aaaaa

#585000
1aaaaa

#590000
0aaaaa

#595000
1aaaaa

#600000
0aaaaa

#605000
1aaaaa

#610000
0aaaaa

#615000
1aaaaa
1aaaac
b1001000 aaaae

#620000
0aaaaa

#625000
1aaaaa
0aaaac

#630000
0aaaaa

#635000
1aaaaa

#640000
0aaaaa

#645000
1aaaaa

#650000
0aaaaa

#655000
1aaaaa

#660000
0aaaaa

#665000
1aaaaa

#670000
0aaaaa

#675000
1aaaaa

#680000
0aaaaa

#685000
1aaaaa
1aaaac
1aaaad
b1100001 aaaae
b1000011 aaaaf

#690000
0aaaaa

#695000
1aaaaa
0aaaac
0aaaad

#700000
0aaaaa

#705000
1aaaaa

#710000
0aaaaa

#715000
1aaaaa

#720000
0aaaaa

#725000
1aaaaa

#730000
0aaaaa

#735000
1aaaaa
b1000011 aaaea

#740000
0aaaaa

#745000
1aaaaa
1aaaac
1aaaad
b10100 aaaae
b11011011 aaaaf

#750000
0aaaaa

#755000
1aaaaa
0aaaac
0aaaad

#760000
0aaaaa

#765000
1aaaaa

#770000
0aaaaa

#775000
1aaaaa

#780000
0aaaaa

#785000
1aaaaa

#790000
0aaaaa

#795000
1aaaaa
b11011011 aaabb

#800000
0aaaaa

#805000
1aaaaa
1aaaac
b110010 aaaae

#810000
0aaaaa

#815000
1aaaaa
0aaaac

#820000
0aaaaa

#825000
1aaaaa

#830000
0aaaaa

#835000
1aaaaa

#840000
0aaaaa

#845000
1aaaaa

#850000
0aaaaa

#855000
1aaaaa

#860000
0aaaaa

#865000
1aaaaa

#870000
0aaaaa

#875000
1aaaaa

#880000
0aaaaa

#885000
1aaaaa
1aaaac
b1000001 aaaae

#890000
0aaaaa

#895000
1aaaaa
0aaaac

#900000
0aaaaa

#905000
1aaaaa

#910000
0aaaaa

#915000
1aaaaa

#920000
0aaaaa

#925000
1aaaaa

#930000
0aaaaa

#935000
1aaaaa

#940000
0aaaaa

#945000
1aaaaa
1aaaac
1aaaad
b100000 aaaae
b1001 aaaaf

#950000
0aaaaa

#955000
1aaaaa
0aaaac
0aaaad

#960000
0aaaaa

#965000
1aaaaa

#970000
0aaaaa

#975000
1aaaaa

#980000
0aaaaa

#985000
1aaaaa

#990000
0aaaaa

#995000
1aaaaa
b1001 aaabn

