build/sram/sram_tb.vcd
$date
     Mar 30, 2026       11:33:30
$end

$version
 SystemC 2.3.4-Accellera --- Mar 19 2026 12:36:47
$end

$timescale
     1 ps
$end

$scope module SystemC $end
$var wire    1  aaaaa  clk       $end
$var wire    1  aaaab  rst_ni       $end
$var wire    1  aaaac  req_i       $end
$var wire    1  aaaad  we_i       $end
$var wire    4  aaaae  addr_i [3:0]  $end
$var wire    8  aaaaf  wdata_i [7:0]  $end
$var wire    8  aaaag  rdata_o [7:0]  $end
$var wire    8  aaaah  mem_0 [7:0]  $end
$var wire    8  aaaai  mem_1 [7:0]  $end
$var wire    8  aaaaj  mem_2 [7:0]  $end
$var wire    8  aaaak  mem_3 [7:0]  $end
$var wire    8  aaaal  mem_4 [7:0]  $end
$var wire    8  aaaam  mem_5 [7:0]  $end
$var wire    8  aaaan  mem_6 [7:0]  $end
$var wire    8  aaaao  mem_7 [7:0]  $end
$var wire    8  aaaap  mem_8 [7:0]  $end
$var wire    8  aaaaq  mem_9 [7:0]  $end
$var wire    8  aaaar  mem_10 [7:0]  $end
$var wire    8  aaaas  mem_11 [7:0]  $end
$var wire    8  aaaat  mem_12 [7:0]  $end
$var wire    8  aaaau  mem_13 [7:0]  $end
$var wire    8  aaaav  mem_14 [7:0]  $end
$var wire    8  aaaaw  mem_15 [7:0]  $end
$upscope $end
$enddefinitions  $end

$comment
All initial values are dumped below at time 0 sec = 0 timescale units.
$end

$dumpvars
0aaaaa
0aaaab
0aaaac
0aaaad
b0 aaaae
b0 aaaaf
b0 aaaag
b0 aaaah
b0 aaaai
b0 aaaaj
b0 aaaak
b0 aaaal
b0 aaaam
b0 aaaan
b0 aaaao
b0 aaaap
b0 aaaaq
b0 aaaar
b0 aaaas
b0 aaaat
b0 aaaau
b0 aaaav
b0 aaaaw
$end

#5000
1aaaaa

#10000
0aaaaa

#15000
1aaaaa

#20000
0aaaaa

#25000
1aaaaa

#30000
0aaaaa
1aaaab

#35000
1aaaaa

#40000
0aaaaa

#45000
1aaaaa

#50000
0aaaaa

#55000
1aaaaa

#60000
0aaaaa

#65000
1aaaaa

#70000
0aaaaa

#75000
1aaaaa
1aaaac
1aaaad
b10101010 aaaaf

#80000
0aaaaa

#85000
1aaaaa
0aaaac
0aaaad

#90000
0aaaaa

#95000
1aaaaa
b10101010 aaaah

#100000
0aaaaa

#105000
1aaaaa

#110000
0aaaaa

#115000
1aaaaa

#120000
0aaaaa

#125000
1aaaaa
1aaaac
1aaaad
b11 aaaae
b10001 aaaaf

#130000
0aaaaa

#135000
1aaaaa
0aaaac
0aaaad

#140000
0aaaaa

#145000
1aaaaa
b10001 aaaak

#150000
0aaaaa

#155000
1aaaaa

#160000
0aaaaa

#165000
1aaaaa

#170000
0aaaaa

#175000
1aaaaa

#180000
0aaaaa

#185000
1aaaaa
1aaaac
1aaaad
b111 aaaae
b10111110 aaaaf

#190000
0aaaaa

#195000
1aaaaa
0aaaac
0aaaad

#200000
0aaaaa

#205000
1aaaaa
b10111110 aaaao

#210000
0aaaaa

#215000
1aaaaa

#220000
0aaaaa

#225000
1aaaaa

#230000
0aaaaa

#235000
1aaaaa
1aaaac
1aaaad
b1 aaaae
b11111111 aaaaf

#240000
0aaaaa

#245000
1aaaaa
0aaaac
0aaaad

#250000
0aaaaa

#255000
1aaaaa
b11111111 aaaai

#260000
0aaaaa

#265000
1aaaaa
1aaaac
1aaaad
b1111 aaaae
b1000010 aaaaf

#270000
0aaaaa

#275000
1aaaaa
0aaaac
0aaaad

#280000
0aaaaa

#285000
1aaaaa
b1000010 aaaaw

#290000
0aaaaa

#295000
1aaaaa
1aaaac
1aaaad
b101 aaaae
b10011001 aaaaf

#300000
0aaaaa

#305000
1aaaaa
0aaaac
0aaaad

#310000
0aaaaa

#315000
1aaaaa
b10011001 aaaam

#320000
0aaaaa

#325000
1aaaaa
1aaaac
1aaaad
b10 aaaae
b1111111 aaaaf

#330000
0aaaaa

#335000
1aaaaa
0aaaac
0aaaad

#340000
0aaaaa

#345000
1aaaaa
b1111111 aaaaj

#350000
0aaaaa

#355000
1aaaaa

#360000
0aaaaa

#365000
1aaaaa

#370000
0aaaaa

#375000
1aaaaa
1aaaac
b0 aaaae

#380000
0aaaaa

#385000
1aaaaa
0aaaac

#390000
0aaaaa

#395000
1aaaaa
b10101010 aaaag

#400000
0aaaaa

#405000
1aaaaa
1aaaac
b11 aaaae

#410000
0aaaaa

#415000
1aaaaa
0aaaac

#420000
0aaaaa

#425000
1aaaaa
b10001 aaaag

#430000
0aaaaa

#435000
1aaaaa
1aaaac
b111 aaaae

#440000
0aaaaa

#445000
1aaaaa
0aaaac

#450000
0aaaaa

#455000
1aaaaa
b10111110 aaaag

#460000
0aaaaa

#465000
1aaaaa
1aaaac
b1 aaaae

#470000
0aaaaa

#475000
1aaaaa
0aaaac

#480000
0aaaaa

#485000
1aaaaa
b11111111 aaaag

#490000
0aaaaa

#495000
1aaaaa
1aaaac
b1111 aaaae

#500000
0aaaaa

#505000
1aaaaa
0aaaac

#510000
0aaaaa

#515000
1aaaaa
b1000010 aaaag

#520000
0aaaaa

#525000
1aaaaa
1aaaac
b101 aaaae

#530000
0aaaaa

#535000
1aaaaa
0aaaac

#540000
0aaaaa

#545000
1aaaaa
b10011001 aaaag

#550000
0aaaaa

#555000
1aaaaa
1aaaac
b10 aaaae

#560000
0aaaaa

#565000
1aaaaa
0aaaac

#570000
0aaaaa

#575000
1aaaaa
b1111111 aaaag

#580000
0aaaaa

#585000
1aaaaa
1aaaac
b100 aaaae

#590000
0aaaaa

#595000
1aaaaa
0aaaac

#600000
0aaaaa

#605000
1aaaaa
b0 aaaag

#610000
0aaaaa

#615000
1aaaaa
1aaaac
b110 aaaae

#620000
0aaaaa

#625000
1aaaaa
0aaaac

#630000
0aaaaa

#635000
1aaaaa

#640000
0aaaaa

#645000
1aaaaa
1aaaac
b1000 aaaae

#650000
0aaaaa

#655000
1aaaaa
0aaaac

#660000
0aaaaa

#665000
1aaaaa

#670000
0aaaaa

#675000
1aaaaa
1aaaac
b1001 aaaae

#680000
0aaaaa

#685000
1aaaaa
0aaaac

#690000
0aaaaa

#695000
1aaaaa

#700000
0aaaaa

#705000
1aaaaa
1aaaac
b1010 aaaae

#710000
0aaaaa

#715000
1aaaaa
0aaaac

#720000
0aaaaa

#725000
1aaaaa

#730000
0aaaaa

#735000
1aaaaa
1aaaac
b1011 aaaae

#740000
0aaaaa

#745000
1aaaaa
0aaaac

#750000
0aaaaa

#755000
1aaaaa

#760000
0aaaaa

#765000
1aaaaa
1aaaac
b1100 aaaae

#770000
0aaaaa

#775000
1aaaaa
0aaaac

#780000
0aaaaa

#785000
1aaaaa

#790000
0aaaaa

#795000
1aaaaa
1aaaac
b1101 aaaae

#800000
0aaaaa

#805000
1aaaaa
0aaaac

#810000
0aaaaa

#815000
1aaaaa

#820000
0aaaaa

#825000
1aaaaa
1aaaac
b1110 aaaae

#830000
0aaaaa

#835000
1aaaaa
0aaaac

